hlcsg v3.4 VL33 (Feb  2 2014)
Zoner's Half-Life Compilation Tools -- Custom Build
Based on code modifications by Sean 'Zoner' Cavanaugh
Based on Valve's version, modified with permission.
Submit detailed bug reports to (vluzacn@163.com)
-----  BEGIN  hlcsg -----
Command line: "C:\Users\Ryan Baldwin\Desktop\NZP\Vluzacn's ZHLT v33\tools\hlcsg.exe" -wadautodetect -wadinclude NATURE.wad -wadinclude Example_01.wad -wadinclude posterwad.wad -wadinclude waw_HLBSP.wad -wadinclude de_bikinibottom.wad -wadinclude nw.wad -wadinclude bo2.wad "C:\Users\Ryan Baldwin\Desktop\NZP\nazi-zombies-portable-v1-PSP\nazi-zombies-portable-v1-PSP\nzportable\nzp\maps\twn" 
Arguments: -wadautodetect -wadinclude NATURE.wad -wadinclude Example_01.wad -wadinclude posterwad.wad -wadinclude waw_HLBSP.wad -wadinclude de_bikinibottom.wad -wadinclude nw.wad -wadinclude bo2.wad "C:\Users\Ryan Baldwin\Desktop\NZP\nazi-zombies-portable-v1-PSP\nazi-zombies-portable-v1-PSP\nzportable\nzp\maps\twn" -low 
Entering C:\Users\Ryan Baldwin\Desktop\NZP\nazi-zombies-portable-v1-PSP\nazi-zombies-portable-v1-PSP\nzportable\nzp\maps\twn.map

Current hlcsg Settings
Name                 |  Setting  |  Default
---------------------|-----------|-------------------------
threads               [       4 ] [  Varies ]
verbose               [     off ] [     off ]
log                   [      on ] [      on ]
reset logfile         [      on ] [      on ]
developer             [       0 ] [       0 ]
chart                 [     off ] [     off ]
estimate              [     off ] [     off ]
max texture memory    [ 33554432 ] [ 33554432 ]
max lighting memory   [ 50331648 ] [ 50331648 ]
priority              [     Low ] [  Normal ]

noclip                [     off ] [     off ]
null texture stripping[      on ] [      on ]
clipnode economy mode [     off ] [     off ]
clip hull type        [  simple ] [  simple ]
onlyents              [     off ] [     off ]
wadtextures           [      on ] [      on ]
skyclip               [      on ] [      on ]
hullfile              [    None ] [    None ]
wad configuration file[    None ] [    None ]
wad.cfg group name    [    None ] [    None ]
nullfile              [    None ] [    None ]
nullify trigger       [      on ] [      on ]
min surface area      [   0.000 ] [   0.000 ]
brush union threshold [   0.000 ] [   0.000 ]
map scaling           [    None ] [    None ]
light name optimize   [      on ] [      on ]
UTF8 game_text        [      on ] [      on ]

Using mapfile wad configuration
Wadfiles not in use by the map will be excluded
Wadinclude list :
[zhlt.wad]
[NATURE.wad]
[Example_01.wad]
[posterwad.wad]
[waw_HLBSP.wad]
[de_bikinibottom.wad]
[nw.wad]
[bo2.wad]

CreateBrush:
 (0.12 seconds)
CSGBrush:
 (0.33 seconds)

Including Wadfile: \Users\Ryan Baldwin\Desktop\NZP\nazi-zombies-portable-v1-PSP\nazi-zombies-portable-v1-PSP\nzportable\nzp\textures\Example_01.wad
 - Contains 2 used textures, 3.51 percent of map (15 textures in wad)
Including Wadfile: \Users\Ryan Baldwin\Desktop\NZP\nazi-zombies-portable-v1-PSP\nazi-zombies-portable-v1-PSP\nzportable\nzp\textures\waw_HLBSP.wad
 - Contains 8 used textures, 14.04 percent of map (157 textures in wad)
Including Wadfile: \Users\Ryan Baldwin\Desktop\NZP\nazi-zombies-portable-v1-PSP\nazi-zombies-portable-v1-PSP\nzportable\nzp\textures\backupwads\nw.wad
 - Contains 2 used textures, 3.51 percent of map (1326 textures in wad)
Including Wadfile: \Users\Ryan Baldwin\Desktop\NZP\Black Ops 2 Town Raw Files\WAD Files\bo2.wad
 - Contains 45 used textures, 78.95 percent of map (57 textures in wad)

Wad files required to run the map: (None)
Texture usage is at 0.84 mb (of 32.00 mb MAX)
0.72 seconds elapsed

-----   END   hlcsg -----



hlbsp v3.4 VL33 (Feb  2 2014)
Zoner's Half-Life Compilation Tools -- Custom Build
Based on code modifications by Sean 'Zoner' Cavanaugh
Based on Valve's version, modified with permission.
Submit detailed bug reports to (vluzacn@163.com)
-----  BEGIN  hlbsp -----
Command line: "C:\Users\Ryan Baldwin\Desktop\NZP\Vluzacn's ZHLT v33\tools\hlbsp.exe" "C:\Users\Ryan Baldwin\Desktop\NZP\nazi-zombies-portable-v1-PSP\nazi-zombies-portable-v1-PSP\nzportable\nzp\maps\twn" 
Arguments: "C:\Users\Ryan Baldwin\Desktop\NZP\nazi-zombies-portable-v1-PSP\nazi-zombies-portable-v1-PSP\nzportable\nzp\maps\twn" -low -chart 

Current hlbsp Settings
Name               |  Setting  |  Default
-------------------|-----------|-------------------------
threads             [       4 ] [  Varies ]
verbose             [     off ] [     off ]
log                 [      on ] [      on ]
developer           [       0 ] [       0 ]
chart               [      on ] [     off ]
estimate            [     off ] [     off ]
max texture memory  [ 33554432 ] [ 33554432 ]
priority            [     Low ] [  Normal ]

noclip              [     off ] [     off ]
nofill              [     off ] [     off ]
noinsidefill        [     off ] [     off ]
noopt               [     off ] [     off ]
no clipnode merging [     off ] [     off ]
null tex. stripping [      on ] [      on ]
notjunc             [     off ] [     off ]
nobrink             [     off ] [     off ]
subdivide size      [     240 ] [     240 ] (Min 64) (Max 512)
max node size       [    1024 ] [    1024 ] (Min 64) (Max 65536)
remove hull 2       [     off ] [     off ]


SolidBSP [hull 0] Warning: Ambiguous leafnode content ( EMPTY and SOLID ) at (-362,634,199)-(-354,643,307) in hull 0 of model 0 (entity: classname "worldspawn", origin "", targetname "")
500...872 (0.16 seconds)
BSP generation successful, writing portal file 'C:\Users\Ryan Baldwin\Desktop\NZP\nazi-zombies-portable-v1-PSP\nazi-zombies-portable-v1-PSP\nzportable\nzp\maps\twn.prt'
SolidBSP [hull 1] 500...922 (0.17 seconds)
SolidBSP [hull 2] 500...1000...1067 (0.17 seconds)
SolidBSP [hull 3] 500...1000...1144 (0.20 seconds)
Warning: Ambiguous leafnode content ( EMPTY and SOLID ) at (-763,706,287)-(-744,716,457) in hull 1 of model 21 (entity: classname "func_wall", origin "", targetname "")
Warning: Ambiguous leafnode content ( EMPTY and SOLID ) at (-763,706,305)-(-744,716,439) in hull 3 of model 21 (entity: classname "func_wall", origin "", targetname "")
Warning: Ambiguous leafnode content ( EMPTY and SOLID ) at (-663,845,419)-(-639,856,421) in hull 0 of model 22 (entity: classname "func_wall", origin "", targetname "")
Warning: Ambiguous leafnode content ( EMPTY and SOLID ) at (-663,845,395)-(-639,856,397) in hull 0 of model 22 (entity: classname "func_wall", origin "", targetname "")
Warning: Ambiguous leafnode content ( EMPTY and SOLID ) at (-663,845,371)-(-639,856,373) in hull 0 of model 22 (entity: classname "func_wall", origin "", targetname "")
Warning: Ambiguous leafnode content ( EMPTY and SOLID ) at (-663,845,347)-(-639,856,349) in hull 0 of model 22 (entity: classname "func_wall", origin "", targetname "")
Warning: Ambiguous leafnode content ( EMPTY and SOLID ) at (-663,845,323)-(-639,856,325) in hull 0 of model 22 (entity: classname "func_wall", origin "", targetname "")
Warning: Ambiguous leafnode content ( EMPTY and SOLID ) at (-679,861,287)-(-656,872,457) in hull 1 of model 22 (entity: classname "func_wall", origin "", targetname "")
Warning: Ambiguous leafnode content ( EMPTY and SOLID ) at (-695,877,291)-(-672,888,453) in hull 2 of model 22 (entity: classname "func_wall", origin "", targetname "")
Warning: Ambiguous leafnode content ( EMPTY and SOLID ) at (-679,861,305)-(-656,872,439) in hull 3 of model 22 (entity: classname "func_wall", origin "", targetname "")
Reduced 4343 clipnodes to 4077
Reduced 306 texinfos to 272
Reduced 57 texdatas to 56 (885296 bytes to 862720)
Reduced 5542 planes to 2144
FixBrinks:
Increased 4077 clipnodes to 4077.

Object names  Objects/Maxobjs  Memory / Maxmem  Fullness
------------  ---------------  ---------------  --------
models             29/512         1856/32768    ( 5.7%)
planes           2144/32768      42880/655360   ( 6.5%)
vertexes         4603/65535      55236/786420   ( 7.0%)
nodes            1355/32767      32520/786408   ( 4.1%)
texinfos          272/32767      10880/1310680  ( 0.8%)
faces            3075/65535      61500/1310700  ( 4.7%)
* worldfaces     2216/32768          0/0        ( 6.8%)
clipnodes        4077/32767      32616/262136   (12.4%)
leaves            894/32760      25032/917280   ( 2.7%)
* worldleaves     511/8192           0/0        ( 6.2%)
marksurfaces     3667/65535       7334/131070   ( 5.6%)
surfedges       15041/512000     60164/2048000  ( 2.9%)
edges            7756/256000     31024/1024000  ( 3.0%)
texdata          [variable]     862720/33554432 ( 2.6%)
lightdata        [variable]          0/50331648 ( 0.0%)
visdata          [variable]          0/8388608  ( 0.0%)
entdata          [variable]      19216/2097152  ( 0.9%)
* AllocBlock       11/64             0/0        (17.2%)
56 textures referenced
=== Total BSP file data space used: 1242978 bytes ===
Wad files required to run the map: (None)
1.84 seconds elapsed

-----   END   hlbsp -----



hlvis v3.4 VL33 (Feb  2 2014)
Zoner's Half-Life Compilation Tools -- Custom Build
Based on code modifications by Sean 'Zoner' Cavanaugh
Based on Valve's version, modified with permission.
Submit detailed bug reports to (vluzacn@163.com)
-----  BEGIN  hlvis -----
Command line: "C:\Users\Ryan Baldwin\Desktop\NZP\Vluzacn's ZHLT v33\tools\hlvis.exe" -fast "C:\Users\Ryan Baldwin\Desktop\NZP\nazi-zombies-portable-v1-PSP\nazi-zombies-portable-v1-PSP\nzportable\nzp\maps\twn" 
Arguments: -fast "C:\Users\Ryan Baldwin\Desktop\NZP\nazi-zombies-portable-v1-PSP\nazi-zombies-portable-v1-PSP\nzportable\nzp\maps\twn" -low 
 511 portalleafs
1784 numportals

-= Current hlvis Settings =-
Name               |  Setting  |  Default
-------------------|-----------|-------------------------
threads             [       4 ] [  Varies ]
verbose             [     off ] [     off ]
log                 [      on ] [      on ]
developer           [       0 ] [       0 ]
chart               [     off ] [     off ]
estimate            [     off ] [     off ]
max texture memory  [ 33554432 ] [ 33554432 ]
max vis distance    [       0 ] [       0 ]
priority            [     Low ] [  Normal ]

fast vis            [      on ] [     off ]
full vis            [     off ] [     off ]


BasePortalVis:
 (0.17 seconds)
average leafs visible: 361
g_visdatasize:31159  compressed from 32704
0.20 seconds elapsed

-----   END   hlvis -----



hlrad v3.4 VL33 (Feb  2 2014)
Zoner's Half-Life Compilation Tools -- Custom Build
Based on code modifications by Sean 'Zoner' Cavanaugh
Based on Valve's version, modified with permission.
Submit detailed bug reports to (vluzacn@163.com)
-----  BEGIN  hlrad -----
Command line: "C:\Users\Ryan Baldwin\Desktop\NZP\Vluzacn's ZHLT v33\tools\hlrad.exe" "C:\Users\Ryan Baldwin\Desktop\NZP\nazi-zombies-portable-v1-PSP\nazi-zombies-portable-v1-PSP\nzportable\nzp\maps\twn" 
Arguments: "C:\Users\Ryan Baldwin\Desktop\NZP\nazi-zombies-portable-v1-PSP\nazi-zombies-portable-v1-PSP\nzportable\nzp\maps\twn" -low 

-= Current hlrad Settings =-
Name                | Setting             | Default
--------------------|---------------------|-------------------------
threads              [                 4 ] [            Varies ]
verbose              [               off ] [               off ]
log                  [                on ] [                on ]
developer            [                 0 ] [                 0 ]
chart                [               off ] [               off ]
estimate             [               off ] [               off ]
max texture memory   [          33554432 ] [          33554432 ]
max lighting memory  [          50331648 ] [          50331648 ]
priority             [               Low ] [            Normal ]

fast rad             [               off ] [               off ]
vismatrix algorithm  [            Sparse ] [            Sparse ]
oversampling (-extra)[               off ] [               off ]
bounces              [                 8 ] [                 8 ]
ambient light        [ 0.000 0.000 0.000 ] [ 0.000 0.000 0.000 ]
light limit threshold[           188.000 ] [           188.000 ]
circus mode          [               off ] [               off ]

smoothing threshold  [            50.000 ] [            50.000 ]
smoothing threshold 2[         no change ] [         no change ]
direct threshold     [            10.000 ] [            10.000 ]
direct light scale   [             1.000 ] [             1.000 ]
coring threshold     [             0.010 ] [             0.010 ]
patch interpolation  [                on ] [                on ]

texscale             [                on ] [                on ]
patch subdividing    [                on ] [                on ]
chop value           [            64.000 ] [            64.000 ]
texchop value        [            32.000 ] [            32.000 ]

global fade          [             1.000 ] [             1.000 ]
global light scale   [ 2.000 2.000 2.000 ] [ 2.000 2.000 2.000 ]
global gamma         [ 0.550 0.550 0.550 ] [ 0.550 0.550 0.550 ]
global light scale   [             2.000 ] [             2.000 ]
global sky diffusion [             1.000 ] [             1.000 ]

spread angles        [                on ] [                on ]
opaque entities      [                on ] [                on ]
sky lighting fix     [                on ] [                on ]
incremental          [               off ] [               off ]
dump                 [               off ] [               off ]

colour jitter        [       0.0 0.0 0.0 ] [       0.0 0.0 0.0 ]
monochromatic jitter [       0.0 0.0 0.0 ] [       0.0 0.0 0.0 ]

custom shadows with bounce light
                     [               off ] [               off ]
rgb transfers        [               off ] [               off ]
minimum final light  [                 0 ] [                 0 ]
size of transfer     [         1 (16bit) ] [         1 (16bit) ]
size of rgbtransfer  [         2 (32bit) ] [         2 (32bit) ]
soft sky             [                on ] [                on ]
translucent depth    [             2.000 ] [             2.000 ]
block opaque         [                on ] [                on ]
ignore textures      [               off ] [               off ]
reflectivity gamma   [             1.760 ] [             1.760 ]
reflectivity scale   [             0.700 ] [             0.700 ]
blur size            [             1.500 ] [             1.500 ]
no emitter range     [               off ] [               off ]
wall bleeding fix    [                on ] [                on ]


Load Textures:
56 textures referenced
Reading texlights from 'C:\Users\Ryan Baldwin\Desktop\NZP\Vluzacn's ZHLT v33\tools\lights.rad'
0 opaque models
0 opaque faces
3075 faces
Create Patches : 11423 base patches
119570 square feet [17218086.00 square inches]
13 direct lights and 16386 fast direct lights
1 light styles

FindFacePositions:
 (1.64 seconds)
BuildFacelights:
 (46.85 seconds)
BuildVisLeafs:
 (12.32 seconds)
visibility matrix   :   3.8 megs
MakeScales:
 (8.22 seconds)
Transfer Lists :     7909501 :     7.91M transfers
       Indices :     5469684 :     5.22M bytes
          Data :    15851792 :    15.12M bytes
Bounce 1 GatherLight:
 (0.27 seconds)
Bounce 2 GatherLight:
 (0.53 seconds)
Bounce 3 GatherLight:
 (0.53 seconds)
Bounce 4 GatherLight:
 (0.53 seconds)
Bounce 5 GatherLight:
 (0.53 seconds)
Bounce 6 GatherLight:
 (0.53 seconds)
Bounce 7 GatherLight:
 (0.53 seconds)
Bounce 8 GatherLight:
 (0.53 seconds)
CreateTriangulations:
 (0.23 seconds)
AddPatchLights:
 (4.84 seconds)
FinalLightFace:
 (0.05 seconds)
78.58 seconds elapsed [1m 18s]

-----   END   hlrad -----



