float isBuying;
float backupWepSkin;
float sound_perk_delay; 
void() W_Switch;
void() give_revive =
{ 
  sound_perk_delay = time + 4.5;
  
	isBuying = false;
	string modelname;
	float startframe;
	float endframe;
	self.perks = self.perks | 8;
	self.weaponskin = backupWepSkin;
	self.perk_delay = self.fire_delay;
	startframe = GetFrame(self.weapon,TAKE_OUT_START);
	endframe = GetFrame(self.weapon,TAKE_OUT_END);
	modelname = GetWeaponModel(self.weapon, 0);
	Set_W_Frame (startframe, endframe, 0, 0, 0, SUB_Null, modelname, false);//FIXME
}
void() give_juggernog =
{

  sound_perk_delay = time + 4.5;

	isBuying = false;
	string modelname;
	float startframe;
	float endframe;
	self.perks = self.perks | 1;
	self.weaponskin = backupWepSkin;
	startframe = GetFrame(self.weapon,TAKE_OUT_START);
	endframe = GetFrame(self.weapon,TAKE_OUT_END);
	modelname = GetWeaponModel(self.weapon, 0);
	Set_W_Frame (startframe, endframe, 0, 0, 0, SUB_Null, modelname, false);//FIXME
}

void() give_doubletap =
{

  sound_perk_delay = time + 4.5;

	isBuying = false;
  string modelname;
	float startframe;
	float endframe;
	self.perks = self.perks | 2;
	self.weaponskin = backupWepSkin;
	startframe = GetFrame(self.weapon,TAKE_OUT_START);
	endframe = GetFrame(self.weapon,TAKE_OUT_END);
	modelname = GetWeaponModel(self.weapon, 0);
	Set_W_Frame (startframe, endframe, 0, 0, 0, SUB_Null, modelname, false);//FIXME
}
void() give_speedcola =
{
  sound_perk_delay = time + 4.5;

	isBuying = false;
	string modelname;
	float startframe;
	float endframe;
	self.perks = self.perks | 4;
	self.weaponskin = backupWepSkin;
	startframe = GetFrame(self.weapon,TAKE_OUT_START);
	endframe = GetFrame(self.weapon,TAKE_OUT_END);
	modelname = GetWeaponModel(self.weapon, 0);
	Set_W_Frame (startframe, endframe, 0, 0, 0, SUB_Null, modelname, false);//FIXME
	
	/*if (sound_perk_delay < time)
			return;
    else
       sound(other,CHAN_ITEM,"player/talk/fast.wav",1,ATTN_NONE);*/
}
void() give_flopper =
{

  sound_perk_delay = time + 4.5;

	isBuying = false;
	string modelname;
	float startframe;
	float endframe;
	self.perks = self.perks | 16;
	self.weaponskin = backupWepSkin;
	startframe = GetFrame(self.weapon,TAKE_OUT_START);
	endframe = GetFrame(self.weapon,TAKE_OUT_END);
	modelname = GetWeaponModel(self.weapon, 0);
	Set_W_Frame (startframe, endframe, 0, 0, 0, SUB_Null, modelname, false);//FIXME
}
void() give_staminup =
{

  sound_perk_delay = time + 4.5;

	isBuying = false;
	string modelname;
	float startframe;
	float endframe;
	self.perks = self.perks | 32;
	self.weaponskin = backupWepSkin;
	startframe = GetFrame(self.weapon,TAKE_OUT_START);
	endframe = GetFrame(self.weapon,TAKE_OUT_END);
	modelname = GetWeaponModel(self.weapon, 0);
	Set_W_Frame (startframe, endframe, 0, 0, 0, SUB_Null, modelname, false);//FIXME
}

void() give_ammo =
{
	isBuying = false;
	string modelname;
	float startframe;
	float endframe;
	self.weaponskin = 0;
	self.perk_delay = self.fire_delay;

	startframe = GetFrame(self.weapon,TAKE_OUT_START);
	endframe = GetFrame(self.weapon,TAKE_OUT_END);
	modelname = GetWeaponModel(self.weapon, 0);
	Set_W_Frame (startframe, endframe, 0, 0, 0, maxammo, modelname, false);//FIXME
}

void() give_dead =
{
	isBuying = false;
	string modelname;
	float startframe;
	float endframe;
	self.perks = self.perks | 64;
	self.weaponskin = backupWepSkin;
	startframe = GetFrame(self.weapon,TAKE_OUT_START);
	endframe = GetFrame(self.weapon,TAKE_OUT_END);
	modelname = GetWeaponModel(self.weapon, 0);
	Set_W_Frame (startframe, endframe, 0, 0, 0, SUB_Null, modelname, false);//FIXME
}

.float requirespower;
void() touch_perk =
{  
	entity tempe;
	if (other.classname != "player" || other.downed)
		return;

	if (isBuying == true)
    return;
  
	if (self.requirespower == true && !isPowerOn)
	{
		useprint (other, 8, 0, 0);
		return;
	}
	  if (other.weaponskin == 0)
      backupWepSkin = 0;
    else 
      backupWepSkin = 1;

	
	if (self.classname == "perk_revive" && !(other.perks & P_REVIVE) && self.fire_delay < time)
	{
		if (!deathmatch && !coop)
		{
			useprint (other, 9, 500, 1);
		}
		else if ((coop || deathmatch))
		{
			useprint (other, 9, 1500, 1);
		}
		if (!deathmatch && !coop && other.points >= 500 && other.button1)
		{
			isBuying = true;
			self.fire_delay = time + 4.5;
			addmoney (other, -500, 0);
			tempe = self;
			self = other;
			sprintstop();
			self.fire_delay = self.reload_delay = 4.5 + time;
			Set_W_Frame (0, 22, 0, 0, PERK, give_revive, "progs/VModels/v_perk.mdl", true);
			self = tempe;
			other.weaponskin = 3;
			sound (other, CHAN_ITEM, "perkmachine/quickrevive.wav", 1, ATTN_NORM);
			self.revivesoda++;
			if (self.revivesoda == 3)
				remove (self);
		}
		else if ((coop || deathmatch) && other.points >= 1500 && other.button1)
		{
			isBuying = true;
			self.fire_delay = time + 4;
			addmoney (other, -1500, 0);
			tempe = self;
			self = other;
			sprintstop();
			self.fire_delay = self.reload_delay = 4.0 + time;
			Set_W_Frame (0, 39, 0, 0, PERK, give_revive, "progs/VModels/v_perk.mdl", true);
			self = tempe;
			other.weaponskin = 3;
			sound (other, CHAN_ITEM, "perkmachine/quickrevive.wav", 1, ATTN_NORM);
		}
		else if (other.button1)
		{
			centerprint (other, "Not enough points\n");
		  sound (other, CHAN_ITEM, "perkmachine/denyperk.wav", 1, ATTN_NORM);
		}
	}
	if (self.classname == "perk_flopper" && !(other.perks & P_FLOP) && self.fire_delay < time)
	{
		useprint (other, 9, 2000, 6);
		if (other.points >= 2000 && other.button1)
		{
			isBuying = true;
			self.fire_delay = time + 3;
			addmoney (other, -2000, 0);
			tempe = self;
			self = other;
			sprintstop();
			self.fire_delay = self.reload_delay = 4.0 + time;
			Set_W_Frame (0, 39, 0, 0, PERK, give_flopper, "progs/VModels/v_perk.mdl", true);
			self = tempe;
			other.weaponskin = 4;
			sound (other, CHAN_ITEM, "perkmachine/flopper.wav", 1, ATTN_NORM);
		}
		else if (other.button1)
		{
			centerprint (other, "Not enough points\n");
      sound (other, CHAN_ITEM, "perkmachine/denyperk.wav", 1, ATTN_NORM);
		}
	}
	if (self.classname == "perk_juggernog" && !(other.perks & P_JUG) && self.fire_delay < time)
	{
		useprint (other, 9, 2500, 2);
		if (other.points >= 2500 && other.button1)
		{
			isBuying = true;
			self.fire_delay = time + 3;
			addmoney (other, -2500, 0);
			tempe = self;
			self = other;
			sprintstop();
			self.fire_delay = self.reload_delay = 4.0 + time;
			Set_W_Frame (0, 39, 0, 0, PERK, give_juggernog, "progs/VModels/v_perk.mdl", true);
			self = tempe;
			other.weaponskin = 2;
			sound (other, CHAN_ITEM, "perkmachine/juggernog.wav", 1, ATTN_NORM);
		}
		else if (other.button1)
		{
			centerprint (other, "Not enough points\n");
      sound (other, CHAN_ITEM, "perkmachine/denyperk.wav", 1, ATTN_NORM);
		}
	}
	if (self.classname == "perk_staminup" && !(other.perks & P_STAMIN) && self.fire_delay < time)
	{
		useprint (other, 9, 2000, 5);
		if (other.points >= 2000 && other.button1)
		{
			isBuying = true;
			self.fire_delay = time + 3;
			addmoney (other, -2000, 0);
			tempe = self;
			self = other;
			sprintstop();
			self.fire_delay = self.reload_delay = 4.0 + time;
			Set_W_Frame (0, 39, 0, 0, PERK, give_staminup, "progs/VModels/v_perk.mdl", true);
			self = tempe;
			other.weaponskin = 0;
			sound (other, CHAN_ITEM, "perkmachine/staminup.wav", 1, ATTN_NORM);
		}
		else if (other.button1)
		{
			centerprint (other, "Not enough points\n");
      sound (other, CHAN_ITEM, "perkmachine/denyperk.wav", 1, ATTN_NORM);
		}
	}
	if (self.classname == "perk_speed" && !(other.perks & P_SPEED) && self.fire_delay < time)
	{
		useprint (other, 9, 3000, 3);
		if (other.points >= 3000 && other.button1)
		{
			isBuying = true;
			self.fire_delay = time + 3;
			addmoney (other, -3000, 0);
			tempe = self;
			self = other;
			sprintstop();
			self.fire_delay = self.reload_delay = 4.0 + time;
			Set_W_Frame (0, 39, 0, 0, PERK, give_speedcola, "progs/VModels/v_perk.mdl", true);
			self = tempe;
			other.weaponskin = 1;
			sound (other, CHAN_ITEM, "perkmachine/speedcola.wav", 1, ATTN_NORM);
		}
		else if (other.button1)
		{
			centerprint (other, "Not enough points\n");
      sound (other, CHAN_ITEM, "perkmachine/denyperk.wav", 1, ATTN_NORM);
		}
	}
	if (self.classname == "perk_double" && !(other.perks & P_DOUBLE) && self.fire_delay < time)
	{
		useprint (other, 9, 2000, 4);
		if (other.points >= 2000 && other.button1)
		{
			isBuying = true;
			self.fire_delay = time + 3;
			addmoney (other, -2000, 0);
			tempe = self;
			self = other;
			sprintstop();
			self.fire_delay = self.reload_delay = 4.0 + time;
			Set_W_Frame (0, 39, 0, 0, PERK, give_doubletap, "progs/VModels/v_perk.mdl", true);
			self = tempe;
			other.weaponskin = 0;
			sound (other, CHAN_ITEM, "perkmachine/doubletap.wav", 1, ATTN_NORM);
		}
		else if (other.button1)
		{
			centerprint (other, "Not enough points\n");
      sound (other, CHAN_ITEM, "perkmachine/denyperk.wav", 1, ATTN_NORM);
		}
	}
	if (self.classname == "perk_ammo" && self.fire_delay < time)
	{
		useprint (other, 9, 2000, 7);
		if (other.points >= 2000 && other.button1)
		{
			isBuying = true;
			self.fire_delay = time + 3;
			addmoney (other, -2000, 0);
			tempe = self;
			self = other;
			sprintstop();
			self.fire_delay = self.reload_delay = 4.0 + time;
			Set_W_Frame (0, 39, 0, 0, PERK, give_ammo, "progs/VModels/v_perk.mdl", true);
			self = tempe;
			other.weaponskin = 3;
		}
		else if (other.button1)
		{
			centerprint (other, "Not enough points\n");
      sound (other, CHAN_ITEM, "perkmachine/denyperk.wav", 1, ATTN_NORM);
		}
	}
	if (self.classname == "perk_dead" && self.fire_delay < time)
	{
		useprint (other, 9, 1500, 8);
		if (other.points >= 1500 && other.button1)
		{
			isBuying = true;
			self.fire_delay = time + 3;
			addmoney (other, -1500, 0);
			tempe = self;
			self = other;
			sprintstop();
			self.fire_delay = self.reload_delay = 4.0 + time;
			Set_W_Frame (0, 39, 0, 0, PERK, give_dead, "progs/VModels/v_perk.mdl", true);
			self = tempe;
			other.weaponskin = 1;
		}
		else if (other.button1)
		{
			centerprint (other, "Not enough points\n");
      sound (other, CHAN_ITEM, "perkmachine/denyperk.wav", 1, ATTN_NORM);
		}
	}
}

void() setup_perk =
{
	if (find (world, classname, "power_switch"))
	{
		if (self.classname == "perk_revive" && !coop && !deathmatch)
			self.effects = EF_BLUELIGHT;
		else
			self.requirespower = true;
	}
	else
	{
		if (self.classname == "perk_revive")
			self.effects = EF_BLUELIGHT;
		else if (self.classname == "perk_flopper")
			self.effects = EF_PURPLELIGHT;
		else if (self.classname == "perk_juggernog")
			self.effects = EF_REDLIGHT;
		else if (self.classname == "perk_staminup")
			self.effects = EF_ORANGELIGHT;
		else if (self.classname == "perk_speed")
			self.effects = EF_GREENLIGHT;
		else if (self.classname == "perk_double")
			self.effects = EF_ORANGELIGHT;
		else if (self.classname == "perk_pap")
      self.effects = EF_BLUELIGHT;
    else if (self.classname == "perk_ammo")
      self.effects = EF_BLUELIGHT;
    else if (self.classname == "perk_dead")
      self.effects = EF_GREENLIGHT;
	}
}
void() perk_revive =
{
	self.solid = SOLID_TRIGGER;
	precache_model ("progs/Misc/quick_revive.mdl");
	precache_model ("progs/VModels/v_perk.mdl");
	precache_sound("perkmachine/quickrevive.wav");
	precache_sound("perkmachine/denyperk.wav");
  precache_sound ("weapons/papfire.wav");
	setorigin (self, self.origin);
	setmodel (self, "progs/Misc/quick_revive.mdl");
	setsize (self, VEC_HULL2_MIN, VEC_HULL2_MAX);
	self.classname = "perk_revive";
	self.touch = touch_perk;

	self.think = setup_perk;
	self.nextthink = time + 0.1;
	precache_model ("progs/shark.mdl");
	precache_model ("progs/VModels/v_biatch_left.mdl");
	precache_model ("progs/VModels/v_biatch_right.mdl");
};
void() perk_flopper =
{
	self.solid = SOLID_TRIGGER;
	precache_model ("progs/Misc/flopper.mdl");
	precache_model ("progs/VModels/v_perk.mdl");
	precache_sound("perkmachine/flopper.wav");
	precache_sound("perkmachine/denyperk.wav");
	setorigin (self, self.origin);
	setmodel (self, "progs/Misc/flopper.mdl");
	setsize (self, VEC_HULL2_MIN, VEC_HULL2_MAX);
	self.classname = "perk_flopper";
	self.touch = touch_perk;

	self.think = setup_perk;
	self.nextthink = time + 0.1;
};

void() perk_juggernog =
{
	self.solid = SOLID_TRIGGER;
	precache_model ("progs/Misc/juggernog.mdl");
	precache_model ("progs/VModels/v_perk.mdl");
	precache_sound("perkmachine/juggernog.wav");
	precache_sound("perkmachine/denyperk.wav");
	setorigin (self, self.origin);
	setmodel (self, "progs/Misc/juggernog.mdl");
	setsize (self, VEC_HULL2_MIN, VEC_HULL2_MAX);
	self.classname = "perk_juggernog";
	self.touch = touch_perk;

	self.think = setup_perk;
	self.nextthink = time + 0.1;
};

void() perk_staminup =
{
	self.solid = SOLID_TRIGGER;
	precache_model ("progs/Misc/staminup.mdl");
	precache_model ("progs/VModels/v_perk.mdl");
	precache_sound("perkmachine/staminup.wav");
	precache_sound("perkmachine/denyperk.wav");
	setorigin (self, self.origin);
	setmodel (self, "progs/Misc/staminup.mdl");
	setsize (self, VEC_HULL2_MIN, VEC_HULL2_MAX);
	self.classname = "perk_staminup";
	self.touch = touch_perk;

	self.think = setup_perk;
	self.nextthink = time + 0.1;
};

void() perk_speed =
{
	self.solid = SOLID_TRIGGER;
	precache_model ("progs/Misc/speed_cola.mdl");
	precache_model ("progs/VModels/v_perk.mdl");
	precache_sound("perkmachine/speedcola.wav");
	precache_sound("perkmachine/denyperk.wav");
	precache_sound("player/talk/fast.wav");
	setorigin (self, self.origin);
	setmodel (self, "progs/Misc/speed_cola.mdl");
	setsize (self, VEC_HULL2_MIN, VEC_HULL2_MAX);
	self.classname = "perk_speed";
	self.touch = touch_perk;

	self.think = setup_perk;
	self.nextthink = time + 0.1;
};

void() perk_double =
{
	self.solid = SOLID_TRIGGER;
	precache_model ("progs/Misc/double_tap.mdl");
	precache_model ("progs/VModels/v_perk.mdl");
	precache_sound("perkmachine/doubletap.wav");	
	precache_sound("perkmachine/denyperk.wav");
	setorigin (self, self.origin);
	setmodel (self, "progs/Misc/double_tap.mdl");
	setsize (self, VEC_HULL2_MIN, VEC_HULL2_MAX);
	self.classname = "perk_double";
	self.touch = touch_perk;

	self.think = setup_perk;
	self.nextthink = time + 0.1;
};

void() perk_ammo =
{
	self.solid = SOLID_TRIGGER;
	precache_model ("progs/Misc/ammomatic.mdl");
	precache_model ("progs/VModels/v_perk.mdl");
	precache_sound("perkmachine/perk_drink.wav");
	setorigin (self, self.origin);
	setmodel (self, "progs/Misc/ammomatic.mdl");
	setsize (self, VEC_HULL2_MIN, VEC_HULL2_MAX);
	self.classname = "perk_ammo";
	self.touch = touch_perk;
	self.requirespower = true;

	self.think = setup_perk;
	self.nextthink = time + 0.1;
};

void() perk_dead =
{
	self.solid = SOLID_TRIGGER;
	precache_model ("progs/Misc/deadshot.mdl");
	precache_model ("progs/VModels/v_perk.mdl");
	precache_sound("perkmachine/perk_drink.wav");
	setorigin (self, self.origin);
	setmodel (self, "progs/Misc/deadshot.mdl");
	setsize (self, VEC_HULL2_MIN, VEC_HULL2_MAX);
	self.classname = "perk_dead";
	self.touch = touch_perk;
	self.requirespower = true;

	self.think = setup_perk;
	self.nextthink = time + 0.1;
};

void() reset_pap =
{
  local entity who;
  
  if (papState == 2)
    {
      self.secondaryweapon = 0;
      self.secondaryammo = 0;
      self.secondarymag = 0;
    }
  who = find(world,classname,"output_pap_model");
  
  if (who)
    remove(who);
  else
    return;
      
  papState = 0;
}

void() give_pap =
{
  entity tempe;  
	string modelname;
	float startframe;
	float endframe;
	
	isBuying = false;
	
	self.perk_delay = self.fire_delay;
	
  if (papState == 1) //PAP is PAPing.
  {
    originalWeapon = self.weapon;//We set Orig Wep
  
    self.weapon = self.secondaryweapon;//Remove the Orig Wep
    self.currentammo = self.secondaryammo; 
    self.currentmag = self.secondarymag;
    self.weaponskin = self.secondaryweaponskin;    
    
    startframe = GetFrame(self.weapon,TAKE_OUT_START);
		endframe = GetFrame(self.weapon,TAKE_OUT_END);
		modelname = GetWeaponModel(self.weapon, 0);
    Set_W_Frame (startframe, endframe, 0, 0, 0, SUB_Null, modelname, true);//FIXME
    
    self.weaponmodel = GetWeaponModel(self.weapon, 0);// Give weapon model

    //---UGLY WEAPON CHECK---///
    if (originalWeapon == W_COLT)
    {
      papWeapon = W_BIATCH;
    }
    if (originalWeapon == W_357)
    {
      papWeapon = W_KILLU;
    }
    if (originalWeapon == W_GEWEHR)
    {
      papWeapon = W_COMPRESSOR;
    }
    if (originalWeapon == W_M1)
    {
      papWeapon = W_M1000;
    }
     if (originalWeapon == W_RAY)
    {
      papWeapon = W_PORTER;
    }
     if (originalWeapon == W_M1A1)
    {
      papWeapon = W_WIDDER;
    }
     if (originalWeapon == W_M2)
    {
      papWeapon = W_FIW;
    }
     if (originalWeapon == W_KAR)
    {
      papWeapon = W_ARMAGEDDON;
    }
     if (originalWeapon == W_THOMPSON)
    {
      papWeapon = W_GIBS;
    }
     if (originalWeapon == W_TYPE)
    {
      papWeapon = W_SAMURAI;
    }
     if (originalWeapon == W_MP40)
    {
      papWeapon = W_AFTERBURNER;
    }
     if (originalWeapon == W_STG)
    {
      papWeapon = W_SPATZ;
    }
     if (originalWeapon == W_SAWNOFF)
    {
      papWeapon = W_SNUFF;
    }
     if (originalWeapon == W_DB)
    {
      papWeapon = W_BORE;
    }
     if (originalWeapon == W_FG)
    {
      papWeapon = W_IMPELLER;
    }
     if (originalWeapon == W_MG)
    {
      papWeapon = W_BARRACUDA;
    }
     if (originalWeapon == W_BROWNING)
    {
      papWeapon = W_ACCELERATOR;
    }
     if (originalWeapon == W_TRENCH)
    {
      papWeapon = W_GUT;
    }
     if (originalWeapon == W_PPSH)
    {
      papWeapon = W_REAPER;
    }
     if (originalWeapon == W_KAR_SCOPE)
    {
      papWeapon = W_HEADCRACKER;
    }
     if (originalWeapon == W_PANZER)
    {
      papWeapon = W_LONGINUS;
    }
     if (originalWeapon == W_PTRS)
    {
      papWeapon = W_PENETRATOR;
    }
     if (originalWeapon == W_BAR)
    {
      papWeapon = W_WIDOW;
    }
    if (originalWeapon == W_MP5)
    {
      papWeapon = W_MP5;
    }
    if (originalWeapon == W_TESLA)
    {
      papWeapon = W_BIATCH;
    }
    if (originalWeapon == W_M14)
    {
      papWeapon = W_M14;
    }
    
    isBuying = false;
    
    //---EOCHECK---//
    
    papState = 2;
    
    self.think = reset_pap;
    if (!gungame)
      self.nextthink = time + 15;
    else
      self.nextthink = time + 3000;
  }
  else if (papState == 2) //Weapon is ready to go.
  {    
    other.secondaryweapon = other.weapon;//put possible weapon into secondary
    other.currentammo = other.secondaryammo; 
    other.currentmag = other.secondarymag;
    other.weaponskin = 1;
    
    other.weapon = papWeapon;
        
    if (other.weapon == W_HEADCRACKER)
      other.weapon2model = "progs/VModels/v_karscope.mdl";
    else
      other.weapon2model = "";
		
	  //other.weaponmodel = GetWeaponModel(other.weapon, 0);// Give weapon model
	  
    tempe = self;
    self = other;
		startframe = GetFrame(self.weapon,TAKE_OUT_START);
		endframe = GetFrame(self.weapon,TAKE_OUT_END);
		modelname = GetWeaponModel(self.weapon, 0);
		Set_W_Frame (startframe, endframe, 0, 0, 0, SUB_Null, modelname, false);//FIXME
		self = tempe;
		
	  papState = 3;
	  
    other.currentammo = getWeaponAmmo(other.weapon);
		other.currentmag = getWeaponMag(other.weapon);		
  }
  return;
}
void() removeinpap = {remove(self);};
void() velocity_reduce_output = {self.velocity = self.velocity*0;}
void() velocity_reduce_output_in = {self.velocity = self.velocity*0; local entity findpap;findpap = find(world,classname,"perk_pap"); makevectors(findpap.angles);self.velocity = v_forward*-25;self.think = removeinpap;self.nextthink = time + 0.8;}

void() floating_pap_in1 = 
{  
    local entity findpap;
		findpap = find(world,classname,"perk_pap");

    makevectors(findpap.angles);
    self.velocity = v_forward*450;
    
    self.think = velocity_reduce_output_in;
    self.nextthink = time + 0.05;
}

void() floating_pap = 
{  
    local entity findpap;
		findpap = find(world,classname,"perk_pap");

    makevectors(findpap.angles);
    self.velocity = v_forward*25;
    
    self.think = velocity_reduce_output;
    self.nextthink = time + 0.55;
}

void() touch_pap =
{  
   entity tempe;
   string modelname; 
  
  if (other.classname != "player" || other.downed)
    return;

  if (isBuying == true)
    return;
    
  if (self.requirespower == true && !isPowerOn)
	{
		useprint (other, 8, 0, 0);
		return;
	}
  
  if (!papState) // 0
  {
      if (pap_detr(other.weapon) == 1)
        return;
      useprint (other, 12, 5000, 5);
      if (other.points >= 5000 && other.button1 && other.weapon != 0)
      {
        addmoney (other, -5000, 0);
        isBuying = true;
        tempe = self;
        self = other;
        sprintstop();
        
//////////WepModel IN Floating test////////    
   
    local entity floatmodelin;
    local entity findpap; 
    
    modelname = GetWeaponModel(self.weapon, 1);
    
    floatmodelin = spawn ();
    
    findpap = find(world,classname,"perk_pap");
    
    setorigin (floatmodelin, findpap.origin);
    setmodel (floatmodelin, modelname);
    setsize (floatmodelin, '0 0 0', '0 0 0');
    floatmodelin.angles = findpap.angles;
    floatmodelin.angles_y = 90 + findpap.angles_y;
    
    floatmodelin.movetype = MOVETYPE_NOCLIP;
    floatmodelin.solid = SOLID_NOT;
    
    floatmodelin.think = floating_pap_in1;
    floatmodelin.nextthink = time + 0.01;
            
////////////////////////////////////////

        self.fire_delay = self.reload_delay = 4.0 + time;
        Set_W_Frame (0, 39, 0, 0, 0, give_pap, "progs/VModels/v_pap.mdl", true);
        sound(other,CHAN_WEAPON,"perkmachine/papsound.wav",1,ATTN_NONE);
        self = tempe;
        
//////////WepModel OUT Floating test////////       
    local entity floatmodel;
    local entity pap;
    
    pap = find(world,classname,"perk_pap");
    
    modelname = GetWeaponModel(other.weapon, 1);
    
    floatmodel = spawn ();
    floatmodel.classname = "output_pap_model";
    
    setorigin (floatmodel, self.origin);
    setmodel (floatmodel, modelname);
    setsize (floatmodel, '0 0 0', '0 0 0');
    floatmodel.angles = self.angles + pap.angles;
    floatmodel.angles_y = 90 + pap.angles_y;
    
    floatmodel.movetype = MOVETYPE_NOCLIP;
    floatmodel.solid = SOLID_NOT;
    
    floatmodel.owner = other;
    floatmodel.think = floating_pap;
    floatmodel.nextthink = time + 3;
            
////////////////////////////////////////
        papState = 1; 
      }
    else if (other.button1 && other.weapon != 0)
      centerprint (other, "Not enough points\n");
  }
  
  //--
  
  else if (papState == 1)
  {
    give_pap();
    //papState = 2;
    //implement timer
  }
  
  else if (papState == 2)
  {       
    useprint (other, 7, 0, 0);
    if (other.button1)
      {
      give_pap();
      //papState = 2;   
      }
    return;  
  }
  else if (papState == 3)
    {
    
    float startframe;
    float endframe;
    
    other.weaponmodel = GetWeaponModel(other.weapon, 0);// Give weapon model
    startframe = GetFrame(other.weapon,TAKE_OUT_START);
		endframe = GetFrame(other.weapon,TAKE_OUT_END);
		modelname = GetWeaponModel(other.weapon, 0);
    Set_W_Frame (startframe, endframe, 0, 0, 0, SUB_Null, modelname, true);//FIXME

    
		reset_pap();
    }
	return;
}	
	
void()	turnpower1	=[	1,		turnpower2	] {self.frame = 1;};
void()	turnpower2	=[	2,		turnpower3	] {self.frame = 2;};
void()	turnpower3	=[	3,		turnpower4	] {self.frame = 3;};
void()	turnpower4	=[	4,		turnpower4	] {self.frame = 4;};

void() Turn_Lights =
{
	entity tempe;
	SUB_UseTargets();

	tempe = findfloat (world, requirespower, 1);// trigger all paired doors
	while (tempe)
	{
		if (tempe.classname == "perk_revive")
			tempe.effects = EF_BLUELIGHT;
		else if (tempe.classname == "perk_flopper")
			tempe.effects = EF_PURPLELIGHT;
		else if (tempe.classname == "perk_juggernog")
			tempe.effects = EF_REDLIGHT;
		else if (tempe.classname == "perk_staminup")
			tempe.effects = EF_ORANGELIGHT;
		else if (tempe.classname == "perk_speed")
			tempe.effects = EF_GREENLIGHT;
		else if (tempe.classname == "perk_double")
			tempe.effects = EF_ORANGELIGHT;
    else if (tempe.classname == "perk_pap")
      tempe.effects = EF_BLUELIGHT;
    else if (tempe.classname == "perk_ammo")
      tempe.effects = EF_BLUELIGHT;
    else if (tempe.classname == "perk_dead")
      tempe.effects = EF_GREENLIGHT;
      
		tempe = findfloat (tempe, requirespower, 1);// trigger all paired doors
	}
}

void() touch_power_Switch =
{
	entity tempe;
	entity old_self;

	if (other.classname != "player" || other.downed)
		return;

	if (isPowerOn == true)
    return;
	useprint (other, 10, 0, 0);
	if (other.button1 && !isPowerOn)
	{
		turnpower1();
		isPowerOn = true;
		sound (self, CHAN_ITEM, "misc/power.wav", 1, ATTN_NONE);

		tempe = find (world, classname, "door_nzp");// trigger all paired doors
		while (tempe)
		{
			local entity starte;

      if (!tempe.targetname)
      {
        if (!tempe.cost)
        {
          old_self = self;
          self = tempe;
          starte = self;
          door_go_up ();
          tempe.classname = "door_open";
          tempe = find (tempe, classname, "door_nzp");// trigger all paired doors
          self = old_self;
        }
      }
      if (tempe.targetname)
      {
        old_self = self;
        self = tempe;
        remove(self);
        self = old_self;
        tempe = find (tempe, classname, "door_nzp");// trigger all paired doors
       }
		}

		Turn_Lights ();
		
	}
}
void() power_switch =
{
	self.solid = SOLID_TRIGGER;
	precache_model ("progs/Misc/power_switch.mdl");
	precache_sound ("misc/power.wav");
	setorigin (self, self.origin);
	setmodel (self, "progs/Misc/power_switch.mdl");
	setsize (self, VEC_HULL2_MIN, VEC_HULL2_MAX);
	self.classname = "power_switch";
	isPowerOn = false;
	self.touch = touch_power_Switch;
}
void() perk_pap = 
{ 
  entity tempe; 
  
  if (procore)
    remove(self);
    
  tempe = find (world, classname, "power_switch");// trigger all paired doors
    
  self.solid = SOLID_TRIGGER;
  
  if (tempe)
    self.requirespower = true;
  else
    self.requirespower = false;
    
  precache_model ("progs/misc/pap.mdl");
  precache_model ("progs/VModels/v_pap.mdl");
  precache_model ("progs/GModels/g_colt.mdl");
  precache_sound ("perkmachine/papsound.wav");
  precache_sound ("weapons/papfire.wav");
  setorigin(self, self.origin);
  setmodel (self, "progs/misc/pap.mdl");
  setsize (self, VEC_HULL2_MIN, VEC_HULL2_MAX);
  self.classname = "perk_pap";
  self.touch = touch_pap;
  
  if (gungame)
  {
    precache_model ("progs/GModels/g_ppsh.mdl");
    precache_model ("progs/GModels/g_ptrs.mdl");
    precache_model ("progs/GModels/g_fg.mdl");
    precache_model ("progs/GModels/g_sawnoff.mdl");
    precache_model ("progs/GModels/g_mp40.mdl");
    precache_model ("progs/GModels/g_thomp.mdl");
    precache_model ("progs/GModels/g_bar.mdl");
    precache_model ("progs/GModels/g_trench.mdl");
    precache_model ("progs/GModels/g_357.mdl");
    precache_model ("progs/GModels/g_m1a1.mdl");
    precache_model ("progs/GModels/g_gewehr.mdl");
    precache_model ("progs/GModels/g_kar.mdl");
    precache_model ("progs/GModels/g_kars.mdl");
  }
}